…
``` r
# Generate a table of total revenue and total quantities sold by 'CustomerID'
ecommerce %>% group_by(CustomerID) %>% 
  summarise(total_revenue = sum(Revenue), 
            total_qunt_sold = sum(Quantity)) 
```

    ## # A tibble: 4,372 x 3
    ##    CustomerID total_revenue total_qunt_sold
    ##         <int>         <dbl>           <int>
    ##  1      12346            0                0
    ##  2      12347         4310             2458
    ##  3      12348         1797.            2341
    ##  4      12349         1758.             631
    ##  5      12350          334.             197
    ##  6      12352         1545.             470
    ##  7      12353           89               20
    ##  8      12354         1079.             530
    ##  9      12355          459.             240
    ## 10      12356         2811.            1591
    ## # … with 4,362 more rows
…
    ##   CustomerID  Revenue Quantity
    ## 1      12346  77183.6    74215
    ## 2      12346 -77183.6   -74215

``` r
# Generate a table of total revenue and otal quantities sold by 'Country'
ecommerce %>% group_by(Country) %>% 
  summarise(total_revenue = sum(Revenue), 
            total_quant_sold = sum(Quantity))
```

    ## # A tibble: 37 x 3
    ##    Country         total_revenue total_quant_sold
    ##    <chr>                   <dbl>            <int>
    ##  1 Australia             137077.            83653
    ##  2 Austria                10154.             4827
    ##  3 Bahrain                  548.              260
    ##  4 Belgium                40911.            23152
    ##  5 Brazil                  1144.              356
    ##  6 Canada                  3666.             2763
    ##  7 Channel Islands        20086.             9479
    ##  8 Cyprus                 12946.             6317
    ##  9 Czech Republic           708.              592
    ## 10 Denmark                18768.             8188
    ## # … with 27 more rows

``` r
# Generate a table of total revenue and otal quantities sold by 'Country'
ecommerce %>% group_by(InvoiceDate, CustomerID, Country) %>% 
  summarise(total_revenue = sum(Revenue), 
            total_quant_sold = sum(Quantity))
```

    ## # A tibble: 19,296 x 5
    ## # Groups:   InvoiceDate, CustomerID [19,296]
    ##    InvoiceDate CustomerID Country        total_revenue total_quant_sold
    ##    <date>           <int> <chr>                  <dbl>            <int>
    ##  1 2016-11-29       12431 Australia             358.                107
    ##  2 2016-11-29       12433 Norway               1919.               1852
    ##  3 2016-11-29       12472 Germany              -122.                -40
    ##  4 2016-11-29       12583 France                856.                449
    ##  5 2016-11-29       12662 Germany               261.                157
    ##  6 2016-11-29       12748 United Kingdom          4.95                1
    ##  7 2016-11-29       12791 Netherlands           193.                 97
    ##  8 2016-11-29       12838 United Kingdom        391.                228
    ##  9 2016-11-29       12868 United Kingdom        203.                112
    ## 10 2016-11-29       12921 United Kingdom        322.                140
    ## # … with 19,286 more rows
…
